django>=2.2,<2.3
django-filter==2.2.0
pytz>=0a
humanize==2.0.0
pydicom==2.0.0
pynetdicom>=1.5.1,<1.6
xlsxwriter==1.2.8
celery==4.4.7
django-qsstats-magic==1.1.0
python-dateutil==2.8.1
django-solo==1.1.3
django-crispy-forms==1.9.0
pandas==1.1.4
matplotlib==3.3.2
plotly==4.13.0
xlrd==1.2.0
testfixtures==6.14.0
mock==4.0.2
django-js-reverse==0.9.1
requests==2.23.0
flower==0.9.5
numpy==1.19.4
scipy==1.5.4
defusedxml==0.6.0
psycopg2-binary==2.8.4
gunicorn==20.0.4
sphinx==3.2.1
sphinx-rtd-theme==0.5.0
readthedocs-sphinx-ext==2.1.1
sphinx-issues==1.2.0
sphinxcontrib-programoutput
sphinxcontrib-autoprogram
sphinx-argparse
sphinx-copybutton
